{
  "id": "reclusive-cartographer-maps",
  "title": "The Reclusive Cartographer | Free Foundry Content",
  "description": "<p>This free pack, from The Reclusive Cartographer, contains 30 scenes with pre-builts wall, lights and Multi-Level Token support. On top of that, I have also included 10 animated tokens for you to play around with. This pack is designed to give you a taster of the full range of content over on my Patreon. Enjoy!</p><p></p>",
  "version": "2.0.4",
  "compatibility": {
    "minimum": "0.6.0",
    "verified": "11"
  },
  "packs": [
    {
      "name": "rc-free-maps",
      "label": "The Reclusive Cartographer | Maps",
      "path": "/packs/rc-free-maps.db",
      "type": "Scene",
      "private": false,
      "flags": {}
    },
    {
      "name": "rc-free-tokens",
      "label": "The Reclusive Cartographer | Tokens",
      "path": "/packs/rc-free-tokens.db",
      "type": "Actor",
      "system": "dnd5e",
      "private": false,
      "flags": {}
    },
    {
      "name": "rc-free-journals",
      "label": "The Reclusive Cartographer | Journal",
      "path": "/packs/rc-free-journals.db",
      "type": "JournalEntry",
      "private": false,
      "flags": {}
    }
  ],
  "url": "https://www.patreon.com/thereclusivecartographer",
  "manifest": "https://foundryvtt.s3.us-west-2.amazonaws.com/modules/reclusive-cartographer-maps/module.json",
  "download": "https://foundryvtt.s3.us-west-2.amazonaws.com/modules/reclusive-cartographer-maps/reclusive-cartographer-maps-2.0.4.zip",
  "authors": [
    {
      "name": "The Reclusive Cartographer",
      "flags": {}
    }
  ]
}