{
  "id": "ddb-importer",
  "name": "ddb-importer",
  "author": "MrPrimate",
  "title": "DDB-Importer: A D&D Beyond Integrator",
  "license": "MIT License",
  "description": "Import your dndbeyond.com characters, spells, items, monsters, encounters, and adventures!",
  "version": "3.4.20",
  "download": "https://github.com/mrprimate/ddb-importer/releases/download/3.4.20/ddb-importer.zip",
  "manifest": "https://github.com/mrprimate/ddb-importer/releases/download/latest/module.json",
  "readme": "https://github.com/MrPrimate/ddb-importer/blob/main/README.md",
  "changelog": "https://github.com/MrPrimate/ddb-importer/blob/main/CHANGELOG.md",
  "url": "https://github.com/mrprimate/ddb-importer",
  "minimumCoreVersion": "10.282",
  "compatibleCoreVersion": "10",
  "compatibility": {
    "minimum": "10.282",
    "verified": 10
  },
  "authors": [
    {
      "name": "MrPrimate",
      "email": "jack@mrprimate.co.uk",
      "url": "https://mrprimate.co.uk",
      "patreon": "https://www.patreon.com/MrPrimate",
      "discord": "https://discord.gg/WzPuRuDJVP"
    }
  ],
  "languages": [
    {
      "lang": "en",
      "name": "English",
      "path": "lang/en.json"
    }
  ],
  "system": [
    "dnd5e"
  ],
  "relationships": {
    "systems": [
      {
        "id": "dnd5e",
        "type": "system",
        "compatibility": {
          "verified": "2.1.0"
        }
      }
    ]
  },
  "scripts": [
    "./vendor/jszip/jszip.min.js"
  ],
  "esmodules": [
    "dist/main.js"
  ],
  "styles": [
    "./css/default.css",
    "./css/import.css",
    "./css/journal.css",
    "./css/notifications.css",
    "./css/adventure.css"
  ],
  "packs": [],
  "socket": true
}
