{
  "id": "tidy5e-sheet",
  "title": "Tidy5e Sheet",
  "description": "Replaces the default D&amp;D 5e character and NPC sheet with an alternate layout focused on a cleaner UI",
  "version": "0.8.22",
  "authors": [
    {
      "name": "sednec#3813",
      "flags": {}
    },
    {
      "name": "p4535992",
      "url": "https://github.com/p4535992",
      "flags": {}
    }
  ],
  "compatibility": {
    "minimum": "10",
    "verified": "10"
  },
  "esmodules": [
    "scripts/tidy5e-sheet.js",
    "scripts/tidy5e-npc.js",
    "scripts/tidy5e-vehicle.js",
    "scripts/tidy5e-item.js",
    "scripts/app/exhaustion.js"
  ],
  "styles": [
    "css/tidy-icons.css",
    "css/tidy5e.css",
    "css/tidy5e-dark.css"
  ],
  "languages": [
    {
      "lang": "en",
      "name": "English",
      "path": "lang/en.json",
      "flags": {}
    },
    {
      "lang": "es",
      "name": "Español",
      "path": "lang/es.json",
      "flags": {}
    },
    {
      "lang": "de",
      "name": "Deutsch",
      "path": "lang/de.json",
      "flags": {}
    },
    {
      "lang": "it",
      "name": "Italian",
      "path": "lang/it.json",
      "flags": {}
    },
    {
      "lang": "ja",
      "name": "日本語 (Japanese)",
      "path": "lang/ja.json",
      "flags": {}
    },
    {
      "lang": "ko",
      "name": "한국어 (Korean)",
      "path": "lang/ko.json",
      "flags": {}
    },
    {
      "lang": "pt-BR",
      "name": "Português (Brasil)",
      "path": "lang/pt-BR.json",
      "flags": {}
    },
    {
      "lang": "fr",
      "name": "Francais",
      "path": "lang/fr.json",
      "flags": {}
    },
    {
      "lang": "zh-tw",
      "name": "正體中文",
      "path": "lang/zh-tw.json",
      "flags": {}
    },
    {
      "lang": "cs",
      "name": "Čeština",
      "path": "lang/cs.json",
      "flags": {}
    },
    {
      "lang": "hu",
      "name": "Magyar",
      "path": "lang/hu.json",
      "flags": {}
    }
  ],
  "url": "https://github.com/sdenec/tidy5e-sheet",
  "manifest": "https://github.com/sdenec/tidy5e-sheet/releases/download/0.8.22/module.json",
  "download": "https://github.com/sdenec/tidy5e-sheet/releases/download/0.8.22/module.zip",
  "relationships": {
    "systems": [
      {
        "id": "dnd5e",
        "manifest": "https://raw.githubusercontent.com/foundryvtt/dnd5e/master/system.json",
        "compatibility": {
          "minimum": "2.1.2",
          "verified": "2.1.2"
        },
        "type": "system"
      }
    ],
    "conflicts": [
      {
        "id": "spell-level-buttons-for-dnd5e",
        "reason": "Redundancy of features you can disable 'Spell Level Buttons for DnD 5e' module if you want",
        "type": "module",
        "compatibility": {}
      },
      {
        "id": "lazymoney",
        "reason": "Redundancy of features you can disable 'Lazy Money' module if you want",
        "type": "module",
        "compatibility": {}
      },
      {
        "id": "spell-class-filter-for-5e",
        "reason": "Redundancy of features you can disable 'Multiclass Spellbook Filter",
        "type": "module",
        "compatibility": {}
      }
    ]
  }
}