{
  "id": "ofm-map-canvas",
  "title": "FantasyMaps map canvas",
  "description": "Create scenes with FantasyMaps vectors.",
  "version": "0.1.3",
  "esmodules": [
    "modules/map-canvas.js"
  ],
  "url": "https://github.com/openfantasymap/ofm-map-canvas",
  "manifest": "https://github.com/openfantasymap/ofm-map-canvas/releases/latest/download/module.json",
  "download": "https://github.com/openfantasymap/ofm-map-canvas/releases/download/v0.1.3/module.zip",
  "authors": [
    {
      "name": "FantasyMaps [OpenHistoryMap team]",
      "flags": {}
    }
  ],
  "compatibility": {
    "minimum": "9.0",
    "verified": "10.0"
  }
}